-------------------------------------------------------------------------------
Test set: TestSuite
-------------------------------------------------------------------------------
Tests run: 2, Failures: 2, Errors: 0, Skipped: 0, Time elapsed: 12.381 s <<< FAILURE! - in TestSuite
GetUsersTest.verifyResponse[2](1)  Time elapsed: 1.347 s  <<< FAILURE!
com.fasterxml.jackson.databind.exc.InvalidDefinitionException: 
Cannot construct instance of `responses.Data` (no Creators, like default construct, exist): cannot deserialize from Object value (no delegate- or property-based Creator)
 at [Source: (String)"{"page":2,"per_page":6,"total":12,"total_pages":2,"data":[{"id":7,"email":"michael.lawson@reqres.in","first_name":"Michael","last_name":"Lawson","avatar":"https://reqres.in/img/faces/7-image.jpg"},{"id":8,"email":"lindsay.ferguson@reqres.in","first_name":"Lindsay","last_name":"Ferguson","avatar":"https://reqres.in/img/faces/8-image.jpg"},{"id":9,"email":"tobias.funke@reqres.in","first_name":"Tobias","last_name":"Funke","avatar":"https://reqres.in/img/faces/9-image.jpg"},{"id":10,"email":"byron.f"[truncated 530 chars]; line: 1, column: 60] (through reference chain: responses.GetUsersResponse["data"]->java.util.ArrayList[0])
	at GetUsersTest.verifyResponse(GetUsersTest.java:42)

GetUsersTest.verifyResponseForPage1[1](1)  Time elapsed: 0.299 s  <<< FAILURE!
com.fasterxml.jackson.databind.exc.InvalidDefinitionException: 
Cannot construct instance of `responses.Data` (no Creators, like default construct, exist): cannot deserialize from Object value (no delegate- or property-based Creator)
 at [Source: (String)"{"page":1,"per_page":6,"total":12,"total_pages":2,"data":[{"id":1,"email":"george.bluth@reqres.in","first_name":"George","last_name":"Bluth","avatar":"https://reqres.in/img/faces/1-image.jpg"},{"id":2,"email":"janet.weaver@reqres.in","first_name":"Janet","last_name":"Weaver","avatar":"https://reqres.in/img/faces/2-image.jpg"},{"id":3,"email":"emma.wong@reqres.in","first_name":"Emma","last_name":"Wong","avatar":"https://reqres.in/img/faces/3-image.jpg"},{"id":4,"email":"eve.holt@reqres.in","first"[truncated 496 chars]; line: 1, column: 60] (through reference chain: responses.GetUsersResponse["data"]->java.util.ArrayList[0])
	at GetUsersTest.verifyResponse(GetUsersTest.java:42)
	at GetUsersTest.verifyResponseForPage1(GetUsersTest.java:52)

